{
	"info": {
		"_postman_id": "549b816b-eeec-49ed-9eee-51f8fe32b28a",
		"name": "logs",
		"schema": "https://schema.getpostman.com/json/collection/v2.1.0/collection.json"
	},
	"item": [
		{
			"name": "categories",
			"item": [
				{
					"name": "index",
					"request": {
						"method": "GET",
						"header": [],
						"url": {
							"raw": "http://localhost:80/categories/index",
							"protocol": "http",
							"host": [
								"localhost"
							],
							"port": "80",
							"path": [
								"categories",
								"index"
							]
						}
					},
					"response": []
				},
				{
					"name": "create",
					"request": {
						"method": "POST",
						"header": [],
						"body": {
							"mode": "formdata",
							"formdata": [
								{
									"key": "id",
									"value": "3",
									"type": "text",
									"disabled": true
								},
								{
									"key": "first_name",
									"value": "miguel",
									"type": "text"
								},
								{
									"key": "second_name",
									"value": "morillo",
									"type": "text"
								},
								{
									"key": "email",
									"value": "hdjkq@klsafa.com",
									"type": "text"
								},
								{
									"key": "password",
									"value": "jnkfmsafmn",
									"type": "text"
								},
								{
									"key": "address",
									"value": "skddm",
									"type": "text"
								},
								{
									"key": "telephone",
									"value": "+3258585898",
									"type": "text"
								},
								{
									"key": "role_id",
									"value": "1",
									"type": "text"
								},
								{
									"key": "active",
									"value": "0",
									"type": "text"
								},
								{
									"key": "photo",
									"value": "onkalmadsklsm",
									"type": "text"
								},
								{
									"key": "activate_token",
									"value": "adkmlasdas",
									"type": "text"
								}
							]
						},
						"url": {
							"raw": "http://localhost:80/categories/create",
							"protocol": "http",
							"host": [
								"localhost"
							],
							"port": "80",
							"path": [
								"categories",
								"create"
							]
						}
					},
					"response": []
				},
				{
					"name": "read",
					"request": {
						"method": "GET",
						"header": [],
						"url": {
							"raw": "http://localhost:80/categories/2/read",
							"protocol": "http",
							"host": [
								"localhost"
							],
							"port": "80",
							"path": [
								"categories",
								"2",
								"read"
							]
						}
					},
					"response": []
				},
				{
					"name": "update",
					"request": {
						"method": "PUT",
						"header": [],
						"body": {
							"mode": "urlencoded",
							"urlencoded": [
								{
									"key": "first_name",
									"value": "miguel",
									"type": "text"
								},
								{
									"key": "second_name",
									"value": "morillo",
									"type": "text"
								},
								{
									"key": "email",
									"value": "hdjkq@klsafa.com",
									"type": "text"
								},
								{
									"key": "password",
									"value": "jnkfmsafmn",
									"type": "text"
								},
								{
									"key": "address",
									"value": "skddm",
									"type": "text"
								},
								{
									"key": "telephone",
									"value": "+3258585898",
									"type": "text"
								},
								{
									"key": "role_id",
									"value": "1",
									"type": "text"
								},
								{
									"key": "active",
									"value": "1",
									"type": "text"
								},
								{
									"key": "photo",
									"value": "onkalmadsklsm",
									"type": "text"
								},
								{
									"key": "activate_token",
									"value": "adkmlasdas",
									"type": "text"
								},
								{
									"key": "",
									"value": "",
									"type": "text"
								}
							]
						},
						"url": {
							"raw": "http://localhost:80/categories/1/update",
							"protocol": "http",
							"host": [
								"localhost"
							],
							"port": "80",
							"path": [
								"categories",
								"1",
								"update"
							]
						}
					},
					"response": []
				},
				{
					"name": "delete",
					"request": {
						"method": "DELETE",
						"header": [],
						"body": {
							"mode": "urlencoded",
							"urlencoded": [
								{
									"key": "first_name",
									"value": "miguel",
									"type": "text"
								},
								{
									"key": "second_name",
									"value": "morillo",
									"type": "text"
								},
								{
									"key": "email",
									"value": "hdjkq@klsafa.com",
									"type": "text"
								},
								{
									"key": "password",
									"value": "jnkfmsafmn",
									"type": "text"
								},
								{
									"key": "address",
									"value": "skddm",
									"type": "text"
								},
								{
									"key": "telephone",
									"value": "+3258585898",
									"type": "text"
								},
								{
									"key": "role_id",
									"value": "1",
									"type": "text"
								},
								{
									"key": "active",
									"value": "1",
									"type": "text"
								},
								{
									"key": "photo",
									"value": "onkalmadsklsm",
									"type": "text"
								},
								{
									"key": "activate_token",
									"value": "adkmlasdas",
									"type": "text"
								},
								{
									"key": "",
									"value": "",
									"type": "text"
								}
							]
						},
						"url": {
							"raw": "http://localhost:80/categories/1/delete",
							"protocol": "http",
							"host": [
								"localhost"
							],
							"port": "80",
							"path": [
								"categories",
								"1",
								"delete"
							]
						}
					},
					"response": []
				}
			],
			"event": [
				{
					"listen": "prerequest",
					"script": {
						"type": "text/javascript",
						"exec": [
							""
						]
					}
				},
				{
					"listen": "test",
					"script": {
						"type": "text/javascript",
						"exec": [
							""
						]
					}
				}
			]
		},
		{
			"name": "comments",
			"item": [
				{
					"name": "index",
					"request": {
						"method": "GET",
						"header": [],
						"url": {
							"raw": "http://localhost:80/comments/index",
							"protocol": "http",
							"host": [
								"localhost"
							],
							"port": "80",
							"path": [
								"comments",
								"index"
							]
						}
					},
					"response": []
				},
				{
					"name": "create",
					"request": {
						"method": "POST",
						"header": [],
						"body": {
							"mode": "formdata",
							"formdata": [
								{
									"key": "id",
									"value": "3",
									"type": "text",
									"disabled": true
								},
								{
									"key": "first_name",
									"value": "miguel",
									"type": "text"
								},
								{
									"key": "second_name",
									"value": "morillo",
									"type": "text"
								},
								{
									"key": "email",
									"value": "hdjkq@klsafa.com",
									"type": "text"
								},
								{
									"key": "password",
									"value": "jnkfmsafmn",
									"type": "text"
								},
								{
									"key": "address",
									"value": "skddm",
									"type": "text"
								},
								{
									"key": "telephone",
									"value": "+3258585898",
									"type": "text"
								},
								{
									"key": "role_id",
									"value": "1",
									"type": "text"
								},
								{
									"key": "active",
									"value": "0",
									"type": "text"
								},
								{
									"key": "photo",
									"value": "onkalmadsklsm",
									"type": "text"
								},
								{
									"key": "activate_token",
									"value": "adkmlasdas",
									"type": "text"
								}
							]
						},
						"url": {
							"raw": "http://localhost:80/comments/create",
							"protocol": "http",
							"host": [
								"localhost"
							],
							"port": "80",
							"path": [
								"comments",
								"create"
							]
						}
					},
					"response": []
				},
				{
					"name": "read",
					"request": {
						"method": "GET",
						"header": [],
						"url": {
							"raw": "http://localhost:80/comments/2/read",
							"protocol": "http",
							"host": [
								"localhost"
							],
							"port": "80",
							"path": [
								"comments",
								"2",
								"read"
							]
						}
					},
					"response": []
				},
				{
					"name": "update",
					"request": {
						"method": "PUT",
						"header": [],
						"body": {
							"mode": "urlencoded",
							"urlencoded": [
								{
									"key": "first_name",
									"value": "miguel",
									"type": "text"
								},
								{
									"key": "second_name",
									"value": "morillo",
									"type": "text"
								},
								{
									"key": "email",
									"value": "hdjkq@klsafa.com",
									"type": "text"
								},
								{
									"key": "password",
									"value": "jnkfmsafmn",
									"type": "text"
								},
								{
									"key": "address",
									"value": "skddm",
									"type": "text"
								},
								{
									"key": "telephone",
									"value": "+3258585898",
									"type": "text"
								},
								{
									"key": "role_id",
									"value": "1",
									"type": "text"
								},
								{
									"key": "active",
									"value": "1",
									"type": "text"
								},
								{
									"key": "photo",
									"value": "onkalmadsklsm",
									"type": "text"
								},
								{
									"key": "activate_token",
									"value": "adkmlasdas",
									"type": "text"
								},
								{
									"key": "",
									"value": "",
									"type": "text"
								}
							]
						},
						"url": {
							"raw": "http://localhost:80/comments/30/update",
							"protocol": "http",
							"host": [
								"localhost"
							],
							"port": "80",
							"path": [
								"comments",
								"30",
								"update"
							]
						}
					},
					"response": []
				},
				{
					"name": "delete",
					"request": {
						"method": "DELETE",
						"header": [],
						"body": {
							"mode": "urlencoded",
							"urlencoded": [
								{
									"key": "first_name",
									"value": "miguel",
									"type": "text"
								},
								{
									"key": "second_name",
									"value": "morillo",
									"type": "text"
								},
								{
									"key": "email",
									"value": "hdjkq@klsafa.com",
									"type": "text"
								},
								{
									"key": "password",
									"value": "jnkfmsafmn",
									"type": "text"
								},
								{
									"key": "address",
									"value": "skddm",
									"type": "text"
								},
								{
									"key": "telephone",
									"value": "+3258585898",
									"type": "text"
								},
								{
									"key": "role_id",
									"value": "1",
									"type": "text"
								},
								{
									"key": "active",
									"value": "1",
									"type": "text"
								},
								{
									"key": "photo",
									"value": "onkalmadsklsm",
									"type": "text"
								},
								{
									"key": "activate_token",
									"value": "adkmlasdas",
									"type": "text"
								},
								{
									"key": "",
									"value": "",
									"type": "text"
								}
							]
						},
						"url": {
							"raw": "http://localhost:80/comments/30/delete",
							"protocol": "http",
							"host": [
								"localhost"
							],
							"port": "80",
							"path": [
								"comments",
								"30",
								"delete"
							]
						}
					},
					"response": []
				}
			],
			"event": [
				{
					"listen": "prerequest",
					"script": {
						"type": "text/javascript",
						"exec": [
							""
						]
					}
				},
				{
					"listen": "test",
					"script": {
						"type": "text/javascript",
						"exec": [
							""
						]
					}
				}
			]
		},
		{
			"name": "photos",
			"item": [
				{
					"name": "index",
					"request": {
						"method": "GET",
						"header": [],
						"url": {
							"raw": "http://localhost:80/photos/index",
							"protocol": "http",
							"host": [
								"localhost"
							],
							"port": "80",
							"path": [
								"photos",
								"index"
							]
						}
					},
					"response": []
				},
				{
					"name": "create",
					"request": {
						"method": "POST",
						"header": [],
						"body": {
							"mode": "formdata",
							"formdata": [
								{
									"key": "id",
									"value": "3",
									"type": "text",
									"disabled": true
								},
								{
									"key": "first_name",
									"value": "miguel",
									"type": "text"
								},
								{
									"key": "second_name",
									"value": "morillo",
									"type": "text"
								},
								{
									"key": "email",
									"value": "hdjkq@klsafa.com",
									"type": "text"
								},
								{
									"key": "password",
									"value": "jnkfmsafmn",
									"type": "text"
								},
								{
									"key": "address",
									"value": "skddm",
									"type": "text"
								},
								{
									"key": "telephone",
									"value": "+3258585898",
									"type": "text"
								},
								{
									"key": "role_id",
									"value": "1",
									"type": "text"
								},
								{
									"key": "active",
									"value": "0",
									"type": "text"
								},
								{
									"key": "photo",
									"value": "onkalmadsklsm",
									"type": "text"
								},
								{
									"key": "activate_token",
									"value": "adkmlasdas",
									"type": "text"
								}
							]
						},
						"url": {
							"raw": "http://localhost:80/photos/create",
							"protocol": "http",
							"host": [
								"localhost"
							],
							"port": "80",
							"path": [
								"photos",
								"create"
							]
						}
					},
					"response": []
				},
				{
					"name": "read",
					"request": {
						"method": "GET",
						"header": [],
						"url": {
							"raw": "http://localhost:80/photos/2/read",
							"protocol": "http",
							"host": [
								"localhost"
							],
							"port": "80",
							"path": [
								"photos",
								"2",
								"read"
							]
						}
					},
					"response": []
				},
				{
					"name": "update",
					"request": {
						"method": "PUT",
						"header": [],
						"body": {
							"mode": "urlencoded",
							"urlencoded": [
								{
									"key": "first_name",
									"value": "miguel",
									"type": "text"
								},
								{
									"key": "second_name",
									"value": "morillo",
									"type": "text"
								},
								{
									"key": "email",
									"value": "hdjkq@klsafa.com",
									"type": "text"
								},
								{
									"key": "password",
									"value": "jnkfmsafmn",
									"type": "text"
								},
								{
									"key": "address",
									"value": "skddm",
									"type": "text"
								},
								{
									"key": "telephone",
									"value": "+3258585898",
									"type": "text"
								},
								{
									"key": "role_id",
									"value": "1",
									"type": "text"
								},
								{
									"key": "active",
									"value": "1",
									"type": "text"
								},
								{
									"key": "photo",
									"value": "onkalmadsklsm",
									"type": "text"
								},
								{
									"key": "activate_token",
									"value": "adkmlasdas",
									"type": "text"
								},
								{
									"key": "",
									"value": "",
									"type": "text"
								}
							]
						},
						"url": {
							"raw": "http://localhost:80/photos/30/update",
							"protocol": "http",
							"host": [
								"localhost"
							],
							"port": "80",
							"path": [
								"photos",
								"30",
								"update"
							]
						}
					},
					"response": []
				},
				{
					"name": "delete",
					"request": {
						"method": "DELETE",
						"header": [],
						"body": {
							"mode": "urlencoded",
							"urlencoded": [
								{
									"key": "first_name",
									"value": "miguel",
									"type": "text"
								},
								{
									"key": "second_name",
									"value": "morillo",
									"type": "text"
								},
								{
									"key": "email",
									"value": "hdjkq@klsafa.com",
									"type": "text"
								},
								{
									"key": "password",
									"value": "jnkfmsafmn",
									"type": "text"
								},
								{
									"key": "address",
									"value": "skddm",
									"type": "text"
								},
								{
									"key": "telephone",
									"value": "+3258585898",
									"type": "text"
								},
								{
									"key": "role_id",
									"value": "1",
									"type": "text"
								},
								{
									"key": "active",
									"value": "1",
									"type": "text"
								},
								{
									"key": "photo",
									"value": "onkalmadsklsm",
									"type": "text"
								},
								{
									"key": "activate_token",
									"value": "adkmlasdas",
									"type": "text"
								},
								{
									"key": "",
									"value": "",
									"type": "text"
								}
							]
						},
						"url": {
							"raw": "http://localhost:80/photos/30/delete",
							"protocol": "http",
							"host": [
								"localhost"
							],
							"port": "80",
							"path": [
								"photos",
								"30",
								"delete"
							]
						}
					},
					"response": []
				}
			],
			"event": [
				{
					"listen": "prerequest",
					"script": {
						"type": "text/javascript",
						"exec": [
							""
						]
					}
				},
				{
					"listen": "test",
					"script": {
						"type": "text/javascript",
						"exec": [
							""
						]
					}
				}
			]
		},
		{
			"name": "ratings",
			"item": [
				{
					"name": "index",
					"request": {
						"method": "GET",
						"header": [],
						"url": {
							"raw": "http://localhost:80/ratings/index",
							"protocol": "http",
							"host": [
								"localhost"
							],
							"port": "80",
							"path": [
								"ratings",
								"index"
							]
						}
					},
					"response": []
				},
				{
					"name": "create",
					"request": {
						"method": "POST",
						"header": [],
						"body": {
							"mode": "formdata",
							"formdata": [
								{
									"key": "id",
									"value": "3",
									"type": "text",
									"disabled": true
								},
								{
									"key": "first_name",
									"value": "miguel",
									"type": "text"
								},
								{
									"key": "second_name",
									"value": "morillo",
									"type": "text"
								},
								{
									"key": "email",
									"value": "hdjkq@klsafa.com",
									"type": "text"
								},
								{
									"key": "password",
									"value": "jnkfmsafmn",
									"type": "text"
								},
								{
									"key": "address",
									"value": "skddm",
									"type": "text"
								},
								{
									"key": "telephone",
									"value": "+3258585898",
									"type": "text"
								},
								{
									"key": "role_id",
									"value": "1",
									"type": "text"
								},
								{
									"key": "active",
									"value": "0",
									"type": "text"
								},
								{
									"key": "photo",
									"value": "onkalmadsklsm",
									"type": "text"
								},
								{
									"key": "activate_token",
									"value": "adkmlasdas",
									"type": "text"
								}
							]
						},
						"url": {
							"raw": "http://localhost:80/ratings/create",
							"protocol": "http",
							"host": [
								"localhost"
							],
							"port": "80",
							"path": [
								"ratings",
								"create"
							]
						}
					},
					"response": []
				},
				{
					"name": "read",
					"request": {
						"method": "GET",
						"header": [],
						"url": {
							"raw": "http://localhost:80/ratings/2/read",
							"protocol": "http",
							"host": [
								"localhost"
							],
							"port": "80",
							"path": [
								"ratings",
								"2",
								"read"
							]
						}
					},
					"response": []
				},
				{
					"name": "update",
					"request": {
						"method": "PUT",
						"header": [],
						"body": {
							"mode": "urlencoded",
							"urlencoded": [
								{
									"key": "first_name",
									"value": "miguel",
									"type": "text"
								},
								{
									"key": "second_name",
									"value": "morillo",
									"type": "text"
								},
								{
									"key": "email",
									"value": "hdjkq@klsafa.com",
									"type": "text"
								},
								{
									"key": "password",
									"value": "jnkfmsafmn",
									"type": "text"
								},
								{
									"key": "address",
									"value": "skddm",
									"type": "text"
								},
								{
									"key": "telephone",
									"value": "+3258585898",
									"type": "text"
								},
								{
									"key": "role_id",
									"value": "1",
									"type": "text"
								},
								{
									"key": "active",
									"value": "1",
									"type": "text"
								},
								{
									"key": "photo",
									"value": "onkalmadsklsm",
									"type": "text"
								},
								{
									"key": "activate_token",
									"value": "adkmlasdas",
									"type": "text"
								},
								{
									"key": "",
									"value": "",
									"type": "text"
								}
							]
						},
						"url": {
							"raw": "http://localhost:80/ratings/30/update",
							"protocol": "http",
							"host": [
								"localhost"
							],
							"port": "80",
							"path": [
								"ratings",
								"30",
								"update"
							]
						}
					},
					"response": []
				},
				{
					"name": "delete",
					"request": {
						"method": "DELETE",
						"header": [],
						"body": {
							"mode": "urlencoded",
							"urlencoded": [
								{
									"key": "first_name",
									"value": "miguel",
									"type": "text"
								},
								{
									"key": "second_name",
									"value": "morillo",
									"type": "text"
								},
								{
									"key": "email",
									"value": "hdjkq@klsafa.com",
									"type": "text"
								},
								{
									"key": "password",
									"value": "jnkfmsafmn",
									"type": "text"
								},
								{
									"key": "address",
									"value": "skddm",
									"type": "text"
								},
								{
									"key": "telephone",
									"value": "+3258585898",
									"type": "text"
								},
								{
									"key": "role_id",
									"value": "1",
									"type": "text"
								},
								{
									"key": "active",
									"value": "1",
									"type": "text"
								},
								{
									"key": "photo",
									"value": "onkalmadsklsm",
									"type": "text"
								},
								{
									"key": "activate_token",
									"value": "adkmlasdas",
									"type": "text"
								},
								{
									"key": "",
									"value": "",
									"type": "text"
								}
							]
						},
						"url": {
							"raw": "http://localhost:80/ratings/30/delete",
							"protocol": "http",
							"host": [
								"localhost"
							],
							"port": "80",
							"path": [
								"ratings",
								"30",
								"delete"
							]
						}
					},
					"response": []
				}
			],
			"event": [
				{
					"listen": "prerequest",
					"script": {
						"type": "text/javascript",
						"exec": [
							""
						]
					}
				},
				{
					"listen": "test",
					"script": {
						"type": "text/javascript",
						"exec": [
							""
						]
					}
				}
			]
		},
		{
			"name": "recipes",
			"item": [
				{
					"name": "index",
					"request": {
						"method": "GET",
						"header": [],
						"url": {
							"raw": "http://localhost:80/recipes/index",
							"protocol": "http",
							"host": [
								"localhost"
							],
							"port": "80",
							"path": [
								"recipes",
								"index"
							]
						}
					},
					"response": []
				},
				{
					"name": "create",
					"request": {
						"method": "POST",
						"header": [],
						"body": {
							"mode": "formdata",
							"formdata": [
								{
									"key": "id",
									"value": "3",
									"type": "text",
									"disabled": true
								},
								{
									"key": "first_name",
									"value": "miguel",
									"type": "text"
								},
								{
									"key": "second_name",
									"value": "morillo",
									"type": "text"
								},
								{
									"key": "email",
									"value": "hdjkq@klsafa.com",
									"type": "text"
								},
								{
									"key": "password",
									"value": "jnkfmsafmn",
									"type": "text"
								},
								{
									"key": "address",
									"value": "skddm",
									"type": "text"
								},
								{
									"key": "telephone",
									"value": "+3258585898",
									"type": "text"
								},
								{
									"key": "role_id",
									"value": "1",
									"type": "text"
								},
								{
									"key": "active",
									"value": "0",
									"type": "text"
								},
								{
									"key": "photo",
									"value": "onkalmadsklsm",
									"type": "text"
								},
								{
									"key": "activate_token",
									"value": "adkmlasdas",
									"type": "text"
								}
							]
						},
						"url": {
							"raw": "http://localhost:80/recipes/create",
							"protocol": "http",
							"host": [
								"localhost"
							],
							"port": "80",
							"path": [
								"recipes",
								"create"
							]
						}
					},
					"response": []
				},
				{
					"name": "read",
					"request": {
						"method": "GET",
						"header": [],
						"url": {
							"raw": "http://localhost:80/recipes/33/read",
							"protocol": "http",
							"host": [
								"localhost"
							],
							"port": "80",
							"path": [
								"recipes",
								"33",
								"read"
							]
						}
					},
					"response": []
				},
				{
					"name": "update",
					"request": {
						"method": "PUT",
						"header": [],
						"body": {
							"mode": "urlencoded",
							"urlencoded": [
								{
									"key": "first_name",
									"value": "miguel",
									"type": "text"
								},
								{
									"key": "second_name",
									"value": "morillo",
									"type": "text"
								},
								{
									"key": "email",
									"value": "hdjkq@klsafa.com",
									"type": "text"
								},
								{
									"key": "password",
									"value": "jnkfmsafmn",
									"type": "text"
								},
								{
									"key": "address",
									"value": "skddm",
									"type": "text"
								},
								{
									"key": "telephone",
									"value": "+3258585898",
									"type": "text"
								},
								{
									"key": "role_id",
									"value": "1",
									"type": "text"
								},
								{
									"key": "active",
									"value": "1",
									"type": "text"
								},
								{
									"key": "photo",
									"value": "onkalmadsklsm",
									"type": "text"
								},
								{
									"key": "activate_token",
									"value": "adkmlasdas",
									"type": "text"
								},
								{
									"key": "",
									"value": "",
									"type": "text"
								}
							]
						},
						"url": {
							"raw": "http://localhost:80/recipes/30/update",
							"protocol": "http",
							"host": [
								"localhost"
							],
							"port": "80",
							"path": [
								"recipes",
								"30",
								"update"
							]
						}
					},
					"response": []
				},
				{
					"name": "delete",
					"request": {
						"method": "DELETE",
						"header": [],
						"body": {
							"mode": "urlencoded",
							"urlencoded": [
								{
									"key": "first_name",
									"value": "miguel",
									"type": "text"
								},
								{
									"key": "second_name",
									"value": "morillo",
									"type": "text"
								},
								{
									"key": "email",
									"value": "hdjkq@klsafa.com",
									"type": "text"
								},
								{
									"key": "password",
									"value": "jnkfmsafmn",
									"type": "text"
								},
								{
									"key": "address",
									"value": "skddm",
									"type": "text"
								},
								{
									"key": "telephone",
									"value": "+3258585898",
									"type": "text"
								},
								{
									"key": "role_id",
									"value": "1",
									"type": "text"
								},
								{
									"key": "active",
									"value": "1",
									"type": "text"
								},
								{
									"key": "photo",
									"value": "onkalmadsklsm",
									"type": "text"
								},
								{
									"key": "activate_token",
									"value": "adkmlasdas",
									"type": "text"
								},
								{
									"key": "",
									"value": "",
									"type": "text"
								}
							]
						},
						"url": {
							"raw": "http://localhost:80/recipes/30/delete",
							"protocol": "http",
							"host": [
								"localhost"
							],
							"port": "80",
							"path": [
								"recipes",
								"30",
								"delete"
							]
						}
					},
					"response": []
				}
			],
			"event": [
				{
					"listen": "prerequest",
					"script": {
						"type": "text/javascript",
						"exec": [
							""
						]
					}
				},
				{
					"listen": "test",
					"script": {
						"type": "text/javascript",
						"exec": [
							""
						]
					}
				}
			]
		},
		{
			"name": "recipes_categories",
			"item": [
				{
					"name": "index",
					"request": {
						"method": "GET",
						"header": [],
						"url": {
							"raw": "http://localhost:80/recipes-category/index",
							"protocol": "http",
							"host": [
								"localhost"
							],
							"port": "80",
							"path": [
								"recipes-category",
								"index"
							]
						}
					},
					"response": []
				},
				{
					"name": "create",
					"request": {
						"method": "POST",
						"header": [],
						"body": {
							"mode": "formdata",
							"formdata": [
								{
									"key": "id",
									"value": "3",
									"type": "text",
									"disabled": true
								},
								{
									"key": "first_name",
									"value": "miguel",
									"type": "text"
								},
								{
									"key": "second_name",
									"value": "morillo",
									"type": "text"
								},
								{
									"key": "email",
									"value": "hdjkq@klsafa.com",
									"type": "text"
								},
								{
									"key": "password",
									"value": "jnkfmsafmn",
									"type": "text"
								},
								{
									"key": "address",
									"value": "skddm",
									"type": "text"
								},
								{
									"key": "telephone",
									"value": "+3258585898",
									"type": "text"
								},
								{
									"key": "role_id",
									"value": "1",
									"type": "text"
								},
								{
									"key": "active",
									"value": "0",
									"type": "text"
								},
								{
									"key": "photo",
									"value": "onkalmadsklsm",
									"type": "text"
								},
								{
									"key": "activate_token",
									"value": "adkmlasdas",
									"type": "text"
								}
							]
						},
						"url": {
							"raw": "http://localhost:80/recipes-category/create",
							"protocol": "http",
							"host": [
								"localhost"
							],
							"port": "80",
							"path": [
								"recipes-category",
								"create"
							]
						}
					},
					"response": []
				},
				{
					"name": "read",
					"request": {
						"method": "GET",
						"header": [],
						"url": {
							"raw": "http://localhost:80/recipes-category/2/read",
							"protocol": "http",
							"host": [
								"localhost"
							],
							"port": "80",
							"path": [
								"recipes-category",
								"2",
								"read"
							]
						}
					},
					"response": []
				},
				{
					"name": "update",
					"request": {
						"method": "PUT",
						"header": [],
						"body": {
							"mode": "urlencoded",
							"urlencoded": [
								{
									"key": "first_name",
									"value": "miguel",
									"type": "text"
								},
								{
									"key": "second_name",
									"value": "morillo",
									"type": "text"
								},
								{
									"key": "email",
									"value": "hdjkq@klsafa.com",
									"type": "text"
								},
								{
									"key": "password",
									"value": "jnkfmsafmn",
									"type": "text"
								},
								{
									"key": "address",
									"value": "skddm",
									"type": "text"
								},
								{
									"key": "telephone",
									"value": "+3258585898",
									"type": "text"
								},
								{
									"key": "role_id",
									"value": "1",
									"type": "text"
								},
								{
									"key": "active",
									"value": "1",
									"type": "text"
								},
								{
									"key": "photo",
									"value": "onkalmadsklsm",
									"type": "text"
								},
								{
									"key": "activate_token",
									"value": "adkmlasdas",
									"type": "text"
								},
								{
									"key": "",
									"value": "",
									"type": "text"
								}
							]
						},
						"url": {
							"raw": "http://localhost:80/recipes-category/30/update",
							"protocol": "http",
							"host": [
								"localhost"
							],
							"port": "80",
							"path": [
								"recipes-category",
								"30",
								"update"
							]
						}
					},
					"response": []
				},
				{
					"name": "delete",
					"request": {
						"method": "DELETE",
						"header": [],
						"body": {
							"mode": "urlencoded",
							"urlencoded": [
								{
									"key": "first_name",
									"value": "miguel",
									"type": "text"
								},
								{
									"key": "second_name",
									"value": "morillo",
									"type": "text"
								},
								{
									"key": "email",
									"value": "hdjkq@klsafa.com",
									"type": "text"
								},
								{
									"key": "password",
									"value": "jnkfmsafmn",
									"type": "text"
								},
								{
									"key": "address",
									"value": "skddm",
									"type": "text"
								},
								{
									"key": "telephone",
									"value": "+3258585898",
									"type": "text"
								},
								{
									"key": "role_id",
									"value": "1",
									"type": "text"
								},
								{
									"key": "active",
									"value": "1",
									"type": "text"
								},
								{
									"key": "photo",
									"value": "onkalmadsklsm",
									"type": "text"
								},
								{
									"key": "activate_token",
									"value": "adkmlasdas",
									"type": "text"
								},
								{
									"key": "",
									"value": "",
									"type": "text"
								}
							]
						},
						"url": {
							"raw": "http://localhost:80/recipes-category/30/delete",
							"protocol": "http",
							"host": [
								"localhost"
							],
							"port": "80",
							"path": [
								"recipes-category",
								"30",
								"delete"
							]
						}
					},
					"response": []
				}
			],
			"event": [
				{
					"listen": "prerequest",
					"script": {
						"type": "text/javascript",
						"exec": [
							""
						]
					}
				},
				{
					"listen": "test",
					"script": {
						"type": "text/javascript",
						"exec": [
							""
						]
					}
				}
			]
		}
	]
}